fooof_right,meg_11_12,meg_19_21,meg_6
2.2052502667905,0.331476380195565,3.81626714534208,-0.742529919930091
2.79223928312547,-2.23887436587606,-2.98122689530306,-5.01255004927331
3.70700826602734,-11.0638728338594,-5.29648416685571,-2.52008578428625
12.912128828852,2.59031383152704,-0.221995147732928,-0.616627836962621
-1.42659350793152,11.3306013288135,1.66931850870376,5.97407923897535
4.39352017322859,1.06906648502392,0.636220962732407,-2.17948258229728
5.52694694253726,-5.32898037999994,-4.1660730526234,-0.809751270706221
-1.08360566815356,6.61975591603733,4.55699932185854,10.0011138648637
0.547275577014044,5.02213665895747,1.68607978339581,4.49059405520881
-0.58078707239578,6.71543140911897,5.01249619975962,2.83743605436291
-0.28026660074217,3.48583361680922,-0.86953460142276,7.09461826407779
1.89863817318269,-6.00173461835388,-6.42195106498398,-3.79232967249323
2.33121258964069,1.54197060799734,-17.5417090241836,-21.323419037234
-0.580062230277652,4.78272405634854,4.7947913100994,5.57902530417178
-1.28788029932422,3.49594427027285,-0.205953871078359,0.465425808116934
2.36885589976312,-1.78406244605608,-2.88649427401912,-2.03670435544998
0.49095346861214,-0.0686182416450296,1.48173903599057,-1.43926964341953
-0.426754289904633,2.98776062714678,0.558523011313141,-2.96155180578358
8.85476586570513,0.659214219477099,0.317816135640199,-5.12650785434076
-0.858285632903845,4.67905426001955,7.2115490000962,1.39040315555442
1.25560776611381,1.63749503925073,1.34830261543498,4.05596639510022
0.810074716325399,-3.6105574365693,-1.88945583409511,0.509003773503628
-1.00810101913344,3.98722449407563,3.26346200542498,5.97983611771026
1.18191114881005,-3.18897151995832,-0.688789564021952,-0.555394168008767
-0.401702933107474,-3.7614880557531,-1.89604770829457,1.86801162431297
0.37632147054033,4.58110111089049,0.21510567392995,20.0868333431193
-2.29284380182342,8.48137964953151,6.69890851191877,9.05264368016075
