left_degrees,right_degrees,condition
-34.2751430939168,-134.262775425507,auditory
-170.8389986752,32.5138532571096,auditory
-146.094780404315,-109.876062696704,auditory
123.251555225866,152.925071266208,auditory
-141.99243914804,-147.233886720926,auditory
93.9585091241117,85.6911658547354,auditory
-110.964613932336,-120.449682632051,auditory
82.2477447965177,56.659689828157,auditory
28.0579765033166,90.1673745807174,auditory
153.811362936513,-144.581924538575,auditory
47.6824684804651,149.983818474972,auditory
-151.293973027108,-169.470969382861,auditory
127.925828114857,115.3164871048,auditory
-15.7394247605627,34.2313777305891,auditory
-44.9070457175025,-22.2188963872196,auditory
-92.2378395874076,-93.751813160317,auditory
-128.162554091255,-107.507114346888,auditory
-45.3199840642072,-61.3504177316321,auditory
24.0802778566126,9.09587925408766,auditory
150.598166214327,99.354586107598,auditory
112.821392345278,-144.449531803597,auditory
25.0890370727915,37.3289504566095,auditory
-38.1466408329818,-62.5644913361337,auditory
-162.238889550669,148.178787242869,auditory
-23.0074942150865,19.8755692389726,auditory
79.6451972713008,81.293937078713,auditory
-30.7666038609671,-103.446560770126,auditory
-35.5640339645834,-149.810189906837,auditory
87.7719527973975,100.325610680921,auditory
-150.917583538496,110.613575109911,auditory
-103.638749625737,27.4166594361305,auditory
-47.7462128743384,7.56508327079003,auditory
-36.3949021958818,-54.0167002544829,auditory
-166.413102520004,19.022583023483,auditory
128.512207829502,132.541297381252,auditory
22.6425139597957,60.0755071970862,auditory
111.328777321973,82.7965239630607,auditory
-166.44251452576,-103.939432501848,auditory
-98.8105131338383,-93.366346302526,auditory
-41.523748692655,-68.5475604279106,auditory
-147.930311374742,-90.8605528519843,auditory
-151.649208622063,-85.1229369642018,auditory
-95.7623977591033,-21.048607205978,auditory
-164.903058656535,-169.338478801359,auditory
0.246054627223799,11.7483517005947,auditory
-109.753571570838,-135.134047339474,auditory
97.475246187852,117.794270704401,auditory
-37.7165498140942,169.381889858636,auditory
-125.986937556263,0.666488638952784,auditory
164.362627140244,-156.821980660981,auditory
-13.6327793439175,-68.5294968786704,auditory
15.46124767142,45.1629733135994,auditory
76.2196444655693,96.1813555103588,auditory
46.2502575751451,54.8874471744463,auditory
-170.643302702524,71.9408404378715,auditory
-135.748262828605,149.73879453871,auditory
-141.730607343251,169.177076515199,auditory
19.4840797494016,60.5800478144034,auditory
152.114090723975,57.9488498523479,auditory
18.2162499975604,75.7046835847634,auditory
153.854006843105,142.830488784021,auditory
-61.3468366399978,127.592506637768,auditory
93.1961972914648,72.8726746993648,auditory
89.2672120361844,126.605627041313,auditory
146.914221269265,-163.833968208051,auditory
-65.5665286659168,-168.618806536251,auditory
-30.2152520181987,15.9314727423864,auditory
-6.41548043058888,-84.1701548768792,auditory
-62.5200890080198,-52.7180395587414,auditory
32.0866852056697,-20.2565554235439,auditory
8.35081749549653,78.5589452266808,auditory
-66.1119758827934,162.583089119132,auditory
-101.515771868643,-33.7465187021068,auditory
-167.098963345753,108.831271723802,auditory
-2.17683993354099,101.887615114964,auditory
21.1564554732435,155.254537225991,auditory
-84.9155538420113,-36.8848246385953,auditory
-5.32872848229683,68.6686974872498,auditory
116.460664169083,142.314177700651,auditory
142.555753148461,164.876407594684,auditory
153.566761967802,-24.8190091365867,auditory
72.8966070778331,2.7737249316369,auditory
173.59711906573,-45.3671876789212,auditory
24.3472153657559,75.8808456638842,auditory
111.739252310792,-179.988327026623,auditory
-82.5326302099259,123.130442332133,auditory
-18.9849127113926,22.2621994760777,auditory
-84.8126459338109,86.6773336744243,auditory
-10.1631475284748,-0.0447642948221038,auditory
-4.97524299344453,155.715197240652,auditory
-162.092700358024,142.938369249418,auditory
-133.924300825836,28.7237842947376,auditory
-173.242943312662,-100.035025348301,auditory
-10.5466291061486,10.8675414407313,auditory
15.5539357245787,-73.8406352115221,auditory
-30.153223914519,18.8579365861009,auditory
157.783563147532,8.82885247164956,auditory
-154.874662326333,-152.003161931795,auditory
-17.9721748433499,-131.302111724781,auditory
35.117670406305,-48.7846187657145,auditory
148.588138831198,-158.0688575239,auditory
-160.569561555813,-104.424055366034,auditory
99.2052161428476,28.4009196769831,auditory
108.250598578513,32.0850021653684,auditory
-77.1158850455713,-0.529934740531062,auditory
-161.529709288142,55.0247269172747,auditory
-104.43232108335,-121.033089725903,auditory
53.8279481207837,-26.1247874002931,auditory
103.983322458305,123.465001032465,auditory
-155.382862880175,-166.121674609245,auditory
168.339506245906,-13.8197014840359,auditory
152.34226459212,126.675470504484,auditory
148.886611157476,124.842523661352,auditory
-59.5129173437062,-31.2638743718989,auditory
144.549735672021,96.6161504480858,auditory
59.7844276105378,-1.1732046374472,auditory
-159.449126074122,-21.6425063024431,auditory
0.826600770852726,-33.2168829189527,auditory
-24.1788316073286,162.606521583546,auditory
10.8925615114801,-117.104664395459,auditory
82.2402342166656,81.3312574568035,auditory
-169.958840614009,-137.473694519625,auditory
-147.013081101225,156.723745493623,auditory
-79.1540633491636,-69.7732814562759,auditory
-50.161249119666,-107.969572978808,auditory
130.998586008984,-125.201943338761,auditory
146.300620117057,177.959126881825,visual
-152.092677071047,133.271371374433,visual
-84.3675964563461,-83.462460558312,visual
-140.481615653872,-116.877316603052,visual
60.3040264516334,168.65709236904,visual
-140.765940244769,-133.606566863837,visual
-147.695728677187,-123.164657444059,visual
70.1144004547951,58.6259871641664,visual
-38.5436462738522,-77.8704251417383,visual
18.8767922198005,-29.5041280055864,visual
85.4423494478464,55.6775546364687,visual
7.99840784054269,28.2416483555435,visual
6.56516191530002,-13.6294375102439,visual
86.5608968236663,82.6185379058554,visual
-145.407824131171,-125.486374220801,visual
-123.230753384494,-88.5109819786059,visual
-69.9742781389774,-93.265219613674,visual
-38.6619529064439,-27.9230713275954,visual
-87.6646480532058,-90.4858787282866,visual
89.4648291504866,124.617075967047,visual
9.97935742866205,31.5984852816085,visual
112.687967406414,38.3669415150248,visual
17.3101826953569,-65.7076444480414,visual
158.444637558539,32.8518872380771,visual
-122.961736497293,-168.257036657417,visual
-48.4822775642565,26.7808735934369,visual
-130.26309765914,-132.56156926554,visual
126.817447915512,33.8416655006588,visual
17.8346032348532,-24.6695965718876,visual
-25.8214200936689,-39.0199250450771,visual
62.6504033219068,41.3710831451064,visual
-98.4599864443476,75.6490242679857,visual
73.5190607777753,65.5903319191417,visual
76.4725906516823,50.3212979640565,visual
-72.2908798440385,-51.7348502164019,visual
102.357489604332,-140.340827975665,visual
-128.202343026608,-87.4214352092872,visual
28.2778827351135,-173.820502992677,visual
32.2334055728464,-166.13713355531,visual
-110.954414549217,-137.837323114817,visual
-92.2826132620615,-118.766101528496,visual
-68.4347418658897,1.80458121474421,visual
111.740117031998,-159.672776329233,visual
-164.709395098187,-166.73482984905,visual
61.6197551249837,48.9832683782018,visual
-162.309971849357,-94.8317953481318,visual
-168.265094935822,166.266938611522,visual
47.7728734050416,68.7043416514035,visual
137.464549975464,130.475232697537,visual
73.3121924116772,-159.314234567392,visual
139.901597715641,144.950677886483,visual
-89.9261961791944,-136.091883234914,visual
-71.1294779344953,12.0129180400981,visual
75.4373348815369,38.067984075206,visual
-102.04784995968,-96.5781486775911,visual
44.4766209605965,-55.5669359914795,visual
-84.5083736443101,-167.849415172448,visual
-140.542033862038,-96.8474135836129,visual
52.6786130190135,28.0999078396966,visual
-110.929100365423,146.642186535936,visual
-21.5332735060463,-78.7025327121347,visual
-160.430039205091,-114.455886703134,visual
-55.8791668538746,-87.2559838304324,visual
-67.7963315607741,89.6931557107311,visual
137.334028120445,176.028602314482,visual
-121.057849037302,-16.5674342395945,visual
-178.909426644047,68.929733921705,visual
158.88563174899,130.173293364521,visual
-8.52190326744426,40.9531419690699,visual
-174.93769810389,140.022013282573,visual
-131.022439551323,31.402911435556,visual
108.798602711658,170.865226799035,visual
-45.3446566471001,-163.758543596678,visual
-179.742367269774,-101.267335052552,visual
169.068002424842,-159.937154554387,visual
-116.082981788466,158.443185605713,visual
-153.976920602455,-153.739663846289,visual
-77.1077633324555,-128.240804558599,visual
-75.2870521248527,-125.739252626761,visual
-168.487288906698,-40.8049288238964,visual
-127.541125175982,168.61639903026,visual
-0.253031520254855,-95.4034852718446,visual
167.508566397072,-135.866820666488,visual
-6.66021561360318,2.26329988728795,visual
-109.985908903608,115.584986828741,visual
93.8236247092078,96.775052578967,visual
3.17796616360315,25.2643248462888,visual
-140.477675767243,-165.836851964998,visual
77.8602365999954,-71.8047153151009,visual
88.3284182358656,163.24133033277,visual
168.942443788756,-126.716070018514,visual
-90.3223411103861,-102.519608148183,visual
133.258795063801,109.332086043409,visual
-165.959973356496,-62.9690939498032,visual
111.655074730579,71.1052429836199,visual
-100.387311779628,175.50392277207,visual
-106.659974842301,-61.5237898654693,visual
86.5819818772291,-12.9130662034216,visual
-14.6273164604274,-46.3029216495191,visual
95.6454001139495,147.842188495421,visual
74.6972687728271,-121.602650831418,visual
-110.904245769603,76.6352096090024,visual
42.4660667989891,46.6481889452563,visual
94.8297653159234,26.3597902809613,visual
91.2501733860558,30.3417703381742,visual
165.440225108888,160.410983655152,visual
53.7985503968008,36.6803736298337,visual
-133.838994385883,-104.6723532641,visual
165.534972157364,80.409662569432,visual
-70.0799168355991,137.398849085591,visual
-40.603405589564,-135.604471585453,visual
151.045295525771,59.4772649800004,visual
6.44915626231196,153.786011100415,visual
-12.1833948411962,-75.3081775784306,visual
36.3104706026077,-65.3883542835659,visual
-45.479917473903,-75.8323612306111,visual
-103.212347585559,-116.118619160954,visual
-32.8733695027056,-45.5671643586497,visual
-101.537160861137,-22.9706773105378,visual
-172.567618990831,-23.0782552236136,visual
-169.560869397321,109.853895592649,visual
-41.7202612383599,-129.320235799539,visual
-61.5139048281893,45.9710277410486,visual
