left_degrees,right_degrees,condition
-147.973173374244,26.9301660969674,auditory
-16.6701175045249,88.1535320554931,auditory
-48.1090626455196,102.028468498803,auditory
-48.097653595132,75.9881220937322,auditory
21.8722639729527,-98.0276124560756,auditory
-136.54386080719,-86.34018194697,auditory
114.224969759889,-13.9608288763975,auditory
119.874557273129,116.210846387715,auditory
-148.609920923883,-70.477289508256,auditory
170.209387644255,25.412875123604,auditory
-106.724705115165,60.9273940517057,auditory
86.6049066004594,62.9963943198554,auditory
-160.770723797373,5.41081928828605,auditory
6.00741695918733,148.389360447715,auditory
-46.012054040407,-171.008874533338,auditory
142.846859533014,-114.342901279563,auditory
122.189994830743,14.8218686610535,auditory
-131.547376975561,-81.2219896638796,auditory
104.900928171297,-177.837567792662,auditory
-105.904117418772,158.551609590499,auditory
-156.370905173274,66.9077543513126,auditory
148.28231003908,-150.887086390409,auditory
52.1059520325216,-103.658865382876,auditory
-167.723783250034,164.665498928476,auditory
-107.546642661856,44.2045488366386,auditory
121.414448657086,-178.792278920613,auditory
-152.719323303189,94.9002232536565,auditory
92.6642093298567,-147.763977612983,auditory
124.002844388064,9.55074560509767,auditory
159.474814962729,-14.9972545223599,auditory
-20.2621104521765,39.3926938647198,auditory
178.424722260225,-149.036965272353,auditory
-24.7900711122713,155.366184264634,auditory
24.8155399245647,22.4259321833449,auditory
17.3899158386548,-175.229147380329,auditory
-94.6265660198778,-100.152710854213,auditory
128.559172257031,-118.245035974783,auditory
-99.3383991781925,-153.520473976414,auditory
-64.4629493428029,13.7261622163257,auditory
-25.9036428671522,160.228233351889,auditory
-35.7327010760181,-67.0379160814826,auditory
-27.1220028920793,111.5855303813,auditory
-82.976177798235,44.2515826574562,auditory
-53.0454650887296,-169.352946969834,auditory
13.8741440434934,-124.31737467661,auditory
-91.2683042036498,101.538012776628,auditory
-179.635635732717,-4.38818881387253,auditory
-173.908163651184,78.2823532753392,auditory
169.053900242606,-139.317759667489,auditory
-20.9330258880276,-138.731951254562,auditory
147.550508277681,80.4253122388785,auditory
62.4924495166226,-102.004202121234,auditory
161.153737638181,24.2075688983771,auditory
-139.82944290115,43.0186956352062,auditory
139.909000417302,-131.991343427177,auditory
-155.506855759949,129.592361980689,auditory
84.0593953846473,-162.783158017706,auditory
-81.4164734125374,177.940406044083,auditory
16.7164553838349,17.8000652266046,auditory
-171.081889426284,-84.3431041463248,auditory
113.034460078624,-157.180000319079,auditory
111.688826633237,-65.9669767656033,auditory
73.3593341274663,49.6629033618766,auditory
7.35197006550206,-110.697529971994,auditory
66.5571031264568,57.1190378356142,auditory
-106.44628722137,170.659362043518,auditory
131.707325093734,-171.997131490197,auditory
65.986706746249,2.54935866284966,auditory
-76.4582778953787,-54.8822319308596,auditory
144.802026225667,5.65991000423565,auditory
-114.08533823978,-63.5895668057974,auditory
75.2244485381573,39.7636379501845,auditory
-32.1923796004047,175.068127016241,auditory
86.1245941463419,161.419325402608,auditory
132.771747218212,155.17640408084,auditory
-11.1212983966397,102.38236430843,auditory
167.343614801239,-125.356775988117,auditory
-140.545226135881,-116.818361430133,auditory
94.2616643138306,-5.25937874749982,auditory
-104.94529039806,-176.05170593201,auditory
-70.2254950863119,-179.218262656155,auditory
-167.567781612087,-153.320277181408,auditory
-153.662804606692,88.3687946877634,auditory
32.5471480403929,28.0868422244638,auditory
-30.3227117570891,-133.225827973865,auditory
-142.216992062956,148.515888488873,auditory
149.011424035353,-163.408915136217,auditory
169.575016018494,-143.431311306133,auditory
-49.7494067016574,65.5022425800589,auditory
179.734012924059,-120.372114591713,auditory
11.8595598289571,-61.944606542462,auditory
125.397152237353,-22.4597624111211,auditory
74.2637146091254,139.78734675873,auditory
-152.122243953862,128.497184598616,auditory
-82.2515733880955,-122.866495508413,auditory
-137.9501601506,-123.875572209019,auditory
163.393749640759,-13.4460796619331,auditory
136.526819585501,81.8352043732972,auditory
-20.7824982242691,-25.4397669403552,auditory
97.5885266396943,-46.0039338082031,auditory
-123.868557261863,176.557891429544,auditory
-163.032742884071,-150.852295853996,auditory
173.987963037579,-95.8537773437828,auditory
-81.667854129169,174.453967895712,auditory
106.472889540692,-36.5185495551371,auditory
-159.860929926199,7.19763750203171,auditory
128.749953592508,-59.0090034281598,auditory
83.9170064439809,-33.9898656413984,auditory
-83.9807935832016,-76.6192418027956,auditory
33.4858411161717,125.570196288098,auditory
7.74332576528088,4.94082702644253,auditory
-56.6800989360067,-30.869820150803,auditory
145.323967840606,122.471832764744,auditory
167.040065816009,-97.3635887122658,auditory
106.308776404799,157.353112696287,auditory
-171.008454531769,-88.063012388749,auditory
-98.4182603830985,20.5983381345443,auditory
-130.179329063465,27.7664282754332,auditory
29.9726205200994,81.289962273834,auditory
-45.5280942945389,-129.451681993294,auditory
-30.4421040026874,-154.874790976732,auditory
-144.308033569274,39.2872797799866,auditory
-143.553763588786,-74.4083541548038,auditory
49.197524916781,-158.756242237601,auditory
77.5723003552723,31.3968105873387,auditory
156.67883660559,-122.873364339933,auditory
-68.5942118253712,64.7817304067822,auditory
-111.493478790632,-44.9845437018468,auditory
127.432096298156,109.699132699927,auditory
-72.3335034991367,-21.25758285953,auditory
-54.6747159117769,102.999943832045,auditory
142.970112939143,-64.7991358324507,auditory
164.361179837602,-48.7693664893084,auditory
-22.0024681278025,109.342925741319,auditory
-148.275742376582,-53.9740008522628,auditory
66.5804704719535,113.016710300682,auditory
158.576696849497,-118.40226652243,auditory
-126.871902533976,-91.7865099656687,auditory
-38.595686586062,-71.1730825795728,auditory
-47.7059419976633,13.1241337734703,auditory
-123.372763861642,-77.3129078026514,auditory
-116.868448858779,131.969302874578,auditory
175.365804940696,136.247679763075,auditory
-166.065065996676,-150.295943720974,auditory
52.8567337781765,135.470833838546,auditory
-16.9611469324437,63.8680997543037,auditory
-70.6538846326099,-178.913491749484,auditory
159.755687127483,7.99138744136667,auditory
-150.10928196358,112.421013596861,auditory
89.5386175743845,-8.03000548384516,auditory
-97.5696247064204,-126.890534695782,auditory
148.746211358269,127.323154234675,auditory
-10.9254359637292,145.726445466184,auditory
-41.7525045518603,-149.857423511479,auditory
100.19703564865,-158.388655476222,auditory
9.04842722258634,-39.636055872365,auditory
174.598626427428,39.6397689859225,auditory
-106.253316397805,122.970006213463,auditory
79.567086830861,22.6388035346319,auditory
122.354720028553,-87.8389877443058,auditory
125.183804206299,-132.220955566969,auditory
115.954951028936,91.704793967957,auditory
44.676358654603,150.136290968403,auditory
35.3379774080692,-44.6159289252973,auditory
-32.0624811765801,133.486842732171,auditory
-142.649318496175,33.4521094431094,auditory
-179.551653131527,118.817637885269,auditory
5.34577256654863,179.439476142137,auditory
-88.0832065917148,179.485806795134,auditory
-131.333463562378,58.6843476028655,auditory
78.6878413692446,-157.323489293395,auditory
-11.9939982881693,-176.068077132407,auditory
-8.9315573973367,-147.360873135428,auditory
23.0642637329132,27.3089859648555,auditory
15.3785511068916,14.5105577543285,auditory
22.7742375189246,39.3690456549432,auditory
169.376608345067,-50.2444075658669,auditory
77.8415529555595,115.253479735342,auditory
88.9456928895227,-9.05133013373697,auditory
-56.654743782248,-53.7456215092921,auditory
131.376721192853,-17.2716746724095,auditory
-172.519164757617,-122.277379251263,auditory
37.0402981648197,77.2815291093269,auditory
-175.795174801573,11.0902638205349,auditory
-125.394057947207,95.5073372253472,auditory
146.825869322016,125.182552875006,visual
173.981237890357,-113.998674946055,visual
-0.556329202626537,57.7040524746554,visual
91.0489264635608,118.194919953939,visual
76.4137379091384,153.42368707109,visual
-3.42614580192011,32.3691758649695,visual
154.805116026825,174.344593478261,visual
-83.9239914402472,1.68487880401237,visual
-34.3766561286189,29.0725960323494,visual
18.5594601295789,66.2890410440703,visual
-83.533484088169,-30.7475844059458,visual
-51.5157589777237,3.41445161819601,visual
59.1753226727792,103.394024238185,visual
-67.5711652393189,-1.9295786332858,visual
80.1608055416422,131.937910593886,visual
-100.913675006743,-29.6849366434421,visual
56.572295074284,-117.326999046327,visual
-147.311444560366,-111.729324789015,visual
-168.800007793231,-125.444916424388,visual
10.4388144534354,58.994895802613,visual
-130.616185637747,-41.5049731744683,visual
-161.446390522746,-124.963741985268,visual
47.5550861839792,82.2348412908825,visual
85.6117388754576,145.313468796208,visual
27.0681913952883,49.7639170367983,visual
50.9013393793837,106.985811261021,visual
42.2253162246383,100.667830017042,visual
87.6752634425174,157.212969717957,visual
175.985643680101,-164.38325308233,visual
145.670045811789,-173.761750003007,visual
0.720920984923935,-170.388000509609,visual
172.514695528794,-82.696140633155,visual
-40.911056839329,-50.5526295070186,visual
-14.5135094859238,65.0361663384026,visual
160.560704985094,-79.2827799544175,visual
-97.0555615080843,91.6746650338934,visual
144.617609540255,-98.2402317832929,visual
109.467906595745,-171.755222454096,visual
-88.287845477137,-42.8113579858393,visual
-151.93795960253,-120.056698489567,visual
-19.6406897227889,5.63952715667549,visual
-8.99254567084526,-12.0771413811137,visual
-155.645842867538,-104.864274991089,visual
1.60631471239345,77.2948652455409,visual
18.3901968056035,34.9964724302173,visual
63.5612593464038,82.880866905521,visual
-135.40481362095,-113.506458426468,visual
3.44276265076428,66.4905974084653,visual
-14.0311650893111,22.1721011636492,visual
111.752640351564,143.410740285187,visual
25.1218168017983,74.0270462380911,visual
96.7458580720765,50.8482240661081,visual
91.1766569516056,128.011111188574,visual
109.241570892577,131.1183506853,visual
-35.0072702106891,101.084012183374,visual
118.373486157135,134.191412535664,visual
-175.692154991655,-175.889503196054,visual
-27.5303763318882,22.282492557403,visual
126.629085863268,172.914531219115,visual
142.463519988707,166.921105278933,visual
-80.968727113255,-38.8358431373846,visual
168.243414401383,-61.5261583073867,visual
103.54954440382,64.5060234113706,visual
-18.746758192161,11.7275045157963,visual
169.568032664869,-47.1406981187611,visual
-46.9249783631587,59.322841197007,visual
-47.0144689185994,9.22156034281727,visual
100.865298325291,109.807260798917,visual
-164.461783185153,-127.631100330151,visual
-149.683508913637,-147.486017614984,visual
129.054955169385,139.811342227954,visual
-92.6657717459254,-87.628000674892,visual
-33.0255154689979,177.284408201028,visual
115.245255779119,167.196571580227,visual
-5.73183260065731,-81.434357771645,visual
-43.0269134415917,17.799670290124,visual
91.1031564372579,129.089379613357,visual
101.006439656864,105.523386704746,visual
-8.42825114424394,-5.33917494689656,visual
168.64355466889,-132.850341777927,visual
-9.94391251468337,17.7007419883188,visual
-112.258017431892,-81.6187624576667,visual
68.7282233747277,92.7753081981468,visual
53.7298770730886,-144.254396441028,visual
61.3562509520828,50.4502466959152,visual
-99.9662382131002,-111.775869436803,visual
82.2240253377651,139.616128461259,visual
-76.6262442425647,-90.453130035534,visual
88.3083866942059,132.658878984436,visual
-70.3091445948331,-62.8838021951668,visual
44.1057764239043,-165.652895482715,visual
-151.496331683913,-108.446091893541,visual
-35.5241102503201,-3.28986913155133,visual
16.1821652900001,-46.4672673249406,visual
-124.454086924029,-129.788553945978,visual
71.3482982642853,60.9712900273882,visual
-26.237019240319,-3.46192214761772,visual
63.2815736520655,72.9249363779975,visual
179.949278596211,-165.424481669205,visual
-124.916370495311,-43.0329875544519,visual
165.86582924762,-106.628672024875,visual
151.925423316558,178.542409093688,visual
28.286177654081,31.0498117808201,visual
-102.653049631393,-59.7969492673541,visual
-13.1076145035805,-80.1944911266523,visual
36.035912317936,164.7483671135,visual
-107.673916592361,-14.1195024156478,visual
59.586469510528,-122.41726819527,visual
-22.4715855751598,96.7133427401714,visual
12.8296972510209,63.1786246117731,visual
-157.375598200779,-148.105870610975,visual
123.770525870301,16.1763739305574,visual
-127.924644768309,-166.033907919534,visual
86.264150765476,-76.0101493932109,visual
162.547338957715,-119.372228899302,visual
125.131169963318,178.798821260258,visual
-6.37631999490648,157.519290413154,visual
-120.989621217188,-79.8736321771586,visual
-30.885342812943,85.2926491148632,visual
-86.7559792881319,-6.90595354121938,visual
-130.694302741365,73.8522374104577,visual
0.164143594014887,163.361494450897,visual
88.5805027890367,144.452761973219,visual
118.891558800158,111.405083543197,visual
-14.894329273255,-4.01983530510396,visual
-169.753880107327,-117.585097555158,visual
-122.660078704967,130.293733390043,visual
-158.300450268749,-144.172604752867,visual
161.241700224077,-44.9348948467864,visual
8.76019484866481,-170.539582260078,visual
-77.6195193723282,50.8196952323837,visual
76.3861513812178,-173.738590388272,visual
55.4414442114186,162.25910514551,visual
-13.1251365919358,128.327811684823,visual
-33.2650112467453,-19.7905794719953,visual
81.6084527468503,166.201923270664,visual
15.2785356611382,154.391113350608,visual
62.5224631450322,-9.13145291447343,visual
66.2486696551167,50.5989220050171,visual
146.049082513163,-153.54613641102,visual
20.4289891279379,-11.6996276137029,visual
-130.79993462131,-92.2971738597792,visual
-9.07150185556182,52.0492031403432,visual
-175.927381898451,67.8451628722086,visual
59.2988660084557,159.342701640008,visual
-6.73897959615881,79.1295827286387,visual
140.233098880057,162.250185493835,visual
-154.017969142811,-113.468355174815,visual
117.91828188718,-123.905184395859,visual
-143.98018887145,-164.108499443852,visual
19.9623360174391,74.400117996955,visual
-83.3257069571389,-45.3991162472792,visual
-19.5436396214356,-133.294114145993,visual
-173.988112297659,148.506699192834,visual
165.119275210217,-169.40032616506,visual
-50.1329712820054,-161.02601165071,visual
20.8881164048246,133.81601448815,visual
-4.77417617542746,66.1127096132676,visual
75.6055928626541,169.614710998853,visual
-14.0204018670239,-132.939336105774,visual
-37.1326817989178,20.2327900986672,visual
156.62053007381,-99.4227055901013,visual
-16.3727936922607,136.764871385977,visual
97.3327456196053,90.073046071205,visual
-12.2914154071086,-86.2871052948368,visual
9.28532456691369,73.8706387850327,visual
40.9497434945026,117.883277518716,visual
-12.5296216358642,116.405480516474,visual
31.2954877558904,10.0996895707938,visual
122.869922319728,77.1875371466953,visual
-44.3670449615824,62.3478283430411,visual
11.3910401880437,2.44799024891397,visual
-95.1885054491982,-127.508477655342,visual
-33.599970608432,-17.9893673210695,visual
-158.7302864912,-42.869529011519,visual
74.4180992580164,-120.472279891379,visual
-75.4190708394916,-41.7942396785954,visual
-4.78934600852079,-58.6052437351406,visual
-26.9315207643098,14.3386731479375,visual
89.6838448331842,-179.755455136864,visual
