left_degrees,right_degrees,condition
129.434908204025,123.590374746459,auditory
178.43611362341,-163.407952302934,auditory
-141.140870057499,103.823775266097,auditory
-85.7319877123234,-146.631536677647,auditory
-72.3550408884288,-79.4924852687782,auditory
100.832005582937,-127.302901456695,auditory
-145.945509768391,4.95330382348204,auditory
38.5216004941096,-149.899152863079,auditory
41.3668725963317,-132.626788348427,auditory
140.387267353311,-9.95882746109045,auditory
-52.9885521428632,-153.262929063016,auditory
101.323432065073,24.7107710744493,auditory
78.9483907578973,137.14405813404,auditory
-126.60175774723,-78.6712066851779,auditory
-21.6568728922227,-36.0561986913208,auditory
117.648850439699,-84.1435542647855,auditory
86.6810021732889,47.6633731034748,auditory
156.389765449199,161.99055814715,auditory
-113.324071188035,-129.649196748742,auditory
-176.142280926377,14.0411020730186,auditory
36.0347771488747,7.92728875245272,auditory
69.5707202784209,-32.1392664820409,auditory
-22.6700558295607,68.7992293208032,auditory
-58.1531707071278,24.6882450222093,auditory
-45.3534164751632,-0.511268104787741,auditory
-132.368425156282,-114.284472792111,auditory
-170.468892316748,148.036523756069,auditory
-65.610562170808,168.429149069407,auditory
-114.401606306952,-138.110288011725,auditory
-133.39420874708,152.2373384537,auditory
-55.6050919297913,168.831983114643,auditory
17.1551144905924,62.1472066314206,auditory
-157.222248204747,-151.703974189132,auditory
-24.1969125344702,-2.78362489432275,auditory
-177.158527523879,-102.101113290141,auditory
-166.397959592159,104.904616549844,auditory
-100.178128669295,13.0566260341053,auditory
33.3100760725616,12.5877541729797,auditory
-109.57285418743,167.870311127569,auditory
-111.382762040418,-6.25701881517419,auditory
107.366962928698,9.35022647787174,auditory
122.121138436163,25.9163172939784,auditory
147.396162448108,31.1144466057384,auditory
119.771992030333,136.05138903442,auditory
16.5645072814665,-53.6595149040526,auditory
-149.916925073104,-9.01915678895643,auditory
119.413881870087,83.2970865059892,auditory
-93.6356378016595,-113.16438159827,auditory
-71.4002744829839,131.411146459314,auditory
138.452979282578,-112.391140356117,auditory
-36.7314605164732,-89.7723314751914,auditory
132.265140287753,-148.675596352161,auditory
-84.2146090143758,-173.863317370861,auditory
44.1142036019642,-37.2545422377655,auditory
-86.0461415930427,11.750781400137,auditory
94.7753037739267,-90.0903975362639,auditory
-57.1330784301148,53.6698694172417,auditory
-24.5829637397585,-132.465366385787,auditory
-31.543540573467,-105.690660922274,auditory
-5.47973420482084,-65.2251862079489,auditory
-54.0760183551786,161.890251580625,auditory
31.2000492979478,-24.4257703166791,auditory
40.0059381656613,-46.4153614264614,auditory
-110.463786333758,-101.574051394833,auditory
15.418286005124,168.944642708597,auditory
-140.03606854344,-131.794922231857,auditory
177.121958468118,165.969826306947,auditory
157.771777229314,-138.280148183712,auditory
70.2268326126814,108.097513944627,auditory
14.1810768242547,93.2325467262125,auditory
16.3323774338072,25.4053412992856,auditory
-2.89329656912298,-24.9831740763891,auditory
17.1257333018292,-101.49931840976,auditory
-167.664890303411,-139.586531990088,auditory
19.4035291121456,-85.7470308585288,auditory
-174.613715195997,-116.400491439201,auditory
132.546107558904,176.362096001077,auditory
131.661880802003,119.037700402622,auditory
-9.31433155391386,164.91905549987,auditory
-162.323332731687,-172.98220680812,auditory
-47.1734757164116,-56.9632367059577,auditory
104.068270630665,167.997277572788,auditory
-94.6393411784576,61.4319170554448,auditory
89.4293685015179,94.620448976692,auditory
88.7843241099113,-88.0873383576028,auditory
-132.831976774874,-24.4603772502952,auditory
44.2027451350313,91.6265952002124,auditory
19.7463443396208,110.596228179924,auditory
25.0769482625143,-11.1506548892634,auditory
113.880153043613,170.046921299447,auditory
-16.4148581589002,18.8566312404993,auditory
151.89940528989,-108.221404871248,auditory
-27.6857702295921,12.5585393888845,auditory
-52.0279369497006,159.095225149493,auditory
57.3124931537355,37.2073116072514,auditory
78.5114104649167,-43.4813123275164,auditory
-23.9194184139951,76.0916294162869,auditory
123.142234891999,141.434035200543,auditory
49.7484958615933,16.5827194009713,auditory
35.5723440865099,85.9701294699483,auditory
105.615355070069,65.003662136436,auditory
-151.600094983,-27.9893984102949,auditory
-134.571762701207,75.5172198133952,auditory
76.7422936940856,-139.066933601738,auditory
58.7938282013421,-104.300983275093,auditory
-27.2185078189687,-119.728798809411,auditory
-20.4996420557699,-55.9325422055569,auditory
50.5077850304173,67.8270331595445,auditory
-73.4503742119012,4.08425988505762,auditory
151.4878066974,164.301327611049,auditory
32.646108127034,126.177524451794,auditory
178.439515928961,151.520451854948,auditory
142.018405294336,-57.1110219495444,auditory
66.3461599500658,-88.2578818181542,auditory
119.028156540239,20.4876654631395,auditory
41.2515304088973,-169.710974856168,auditory
83.541835982534,-103.173324639672,auditory
92.8478416359688,27.3212956416824,auditory
-6.80951740062038,104.646658084193,auditory
61.449414109415,21.0167202198148,auditory
-149.390521355082,-124.177172114584,auditory
-114.697598914076,-39.4940460113909,auditory
104.385749866108,-161.852276262957,auditory
173.608615793309,41.6631760794756,auditory
-62.9979657371914,-134.655787303905,auditory
81.9257973929915,158.329346475536,auditory
-79.4481612790048,86.9317967958445,auditory
150.71447005582,-110.745233109193,auditory
145.591614154742,158.970714507501,auditory
-75.9887394976994,-98.6516558725704,auditory
-57.5666568442012,-16.7083872125095,auditory
-137.710749508489,-35.9628136991889,auditory
135.702525220545,106.286954147499,auditory
-10.024734857983,29.0718465534683,auditory
-162.783159151281,-140.715888058039,auditory
-36.8165756031568,-119.389611477237,auditory
107.650836586385,6.01403180808157,auditory
-89.2976096212647,63.904672178075,auditory
36.3800043179106,108.254656847473,auditory
104.149449703232,170.970045725391,auditory
-48.3683904119986,-125.851199483405,auditory
-41.102158093762,-146.696624128687,auditory
-86.0097193796043,-34.5871488952205,auditory
110.613645028187,21.1351924327669,auditory
-179.991437497476,-75.8719055285137,auditory
-32.1461092743059,-175.599863319324,auditory
-21.2939730554609,-19.3471803508409,auditory
93.8633690949659,-1.86724139114605,auditory
86.6682078762746,5.81099360302658,auditory
-93.0106077368334,-30.8976267008432,auditory
59.9287294446332,13.0390527772391,auditory
121.810921751597,-64.9837087831053,auditory
171.981616160381,-38.2410603692717,auditory
169.596033136332,61.5096666343562,auditory
63.6799971156456,62.1089082678289,auditory
-143.229096038047,-140.685768292826,auditory
-59.3394478603085,9.52710280193081,auditory
-74.201790933941,-36.583446783882,auditory
-69.4678627097584,145.688261476745,auditory
127.597044882895,-10.9152763375339,auditory
-69.3983124369185,-52.5657670513148,auditory
124.911090104322,124.245619674236,auditory
92.4091687823843,-109.081391346858,visual
42.7670741490306,-88.7601448226695,visual
59.6875201485001,-7.83087318655817,visual
94.6679187195512,-46.9068957726462,visual
-112.605416873202,141.159966346054,visual
132.861350727533,59.1535854861844,visual
-160.45633608588,37.8144552095175,visual
-137.568203420953,-86.5051732220567,visual
-176.559805168344,-4.2783576752131,visual
55.2610072870308,-33.5277805524496,visual
-24.5177278524966,-21.9225315542873,visual
-21.5360828284622,85.1379496687127,visual
-92.162540441533,-66.6411709727499,visual
-102.449111223177,25.9075809674573,visual
139.335323150658,14.8205174318703,visual
-114.330811852726,101.919457606202,visual
138.126534601105,-29.8002878739304,visual
83.3236545512984,-178.921488503049,visual
127.344072837701,-33.7254610798969,visual
154.787121481633,127.632158305409,visual
91.8430527213643,91.7729680721714,visual
67.5452920440132,156.890095138014,visual
-2.804258898291,82.3075702539896,visual
39.4333551808155,159.708281000456,visual
-49.6264729403608,-148.31155001312,visual
31.9330792460177,-13.481943983397,visual
-171.759533089218,62.2218641085918,visual
-166.047684111991,-161.345914414928,visual
133.751684085633,135.305843856687,visual
-125.633759774662,151.843359335867,visual
84.7100837108458,-83.7850905477344,visual
133.18607547622,144.906923371511,visual
134.908252910189,6.16111396016653,visual
-134.132855609807,116.568615175394,visual
-27.781621106725,-50.8479358551134,visual
42.6582020474769,6.52353800351893,visual
7.84426540953023,-112.462250889929,visual
1.6686173689639,34.006802322495,visual
144.979801332309,157.868447571559,visual
-32.7375356271464,-146.965156874529,visual
33.0350482373693,-107.145644543963,visual
-172.932512979723,-157.387450759463,visual
-123.096794262053,-46.4651259604016,visual
-48.8647064866876,164.290708030788,visual
-56.9985506061547,8.17396383120973,visual
161.29228939577,63.6853981064354,visual
-100.037134492188,-140.718214637473,visual
102.987841231676,88.5192743960424,visual
-45.6566401836681,99.3086362359954,visual
-76.6034717332813,10.5770368777868,visual
-112.233874526811,-89.3041628268662,visual
-65.5747086338932,85.6558255253763,visual
-44.8861514215402,138.933318210904,visual
-36.3932032062063,71.809058290856,visual
-134.29675848414,174.788647110725,visual
-37.58649650186,-54.9203189667602,visual
53.6955989670634,122.830778859082,visual
29.3145681056703,163.936144245584,visual
108.231465676475,154.622574899958,visual
-132.642545277764,74.193199990697,visual
12.0393063421341,-178.864785684658,visual
128.720050244298,35.5077079099147,visual
8.50284296586498,125.320603556509,visual
58.8968204338238,105.711592498939,visual
150.317440729787,175.912124722039,visual
149.883068313139,-164.306498743082,visual
-174.444079351339,-167.908450073169,visual
-120.740091063309,118.098623711064,visual
-169.217442201847,117.597469345717,visual
-63.0460195181609,-24.8149330357597,visual
-61.1289475952507,-41.8745648473046,visual
-33.1346065489763,19.3362685758403,visual
-170.287755620658,79.4462771656417,visual
125.2186994413,-174.675961220719,visual
-64.934015449339,-66.2748387967332,visual
-131.920076103385,168.417528646859,visual
175.41538068033,-31.2303632848656,visual
53.1361913379753,16.0931400958932,visual
-16.3712103914455,-117.678487002991,visual
-74.0101002310283,44.7143942329015,visual
-137.249206917632,102.666169796638,visual
-128.195492919947,46.6138202098486,visual
1.88435071237408,134.414002788872,visual
145.20186507874,-88.5125239822198,visual
157.40648304126,9.04865404406097,visual
28.1917644864043,140.849792590354,visual
2.00873889739522,112.17233594471,visual
0.727138733021004,-23.7994322456928,visual
-78.2337555339886,-14.0812447010407,visual
51.4118600658106,34.0337646673761,visual
-57.2049725811197,-173.074237851434,visual
127.872480787133,-70.1861596158637,visual
39.7729972250011,-33.7126403348192,visual
-55.0156583846765,108.31680713194,visual
7.77920847754262,-69.231191365009,visual
129.332559849222,-37.094114984962,visual
-97.0150663738411,79.2181873556144,visual
70.7856958786402,36.3847394635958,visual
-83.3589555490888,-144.7871655662,visual
158.898046066551,145.810229430261,visual
30.3582637585474,-62.8722061250231,visual
-147.109067765906,65.6200268261032,visual
63.7915061955561,-100.468392876567,visual
-62.1764106610629,-139.21795685921,visual
171.288713713693,-55.9657310512669,visual
-174.250826027028,-167.199414656327,visual
0.175196936114753,-17.2771960431609,visual
114.889423413901,-95.8071906425393,visual
-143.725720957673,-159.544301359584,visual
-149.341357403499,121.535052883738,visual
-61.0923013571069,6.2020803195322,visual
-76.5346960765173,-171.678356054829,visual
-97.4260846200228,154.602758095285,visual
-96.3746230634526,30.9073554654604,visual
-136.621583540829,-159.344883945486,visual
-145.750016842431,80.6982790523689,visual
169.590752095504,19.3712099414274,visual
144.017221635258,142.639384526869,visual
84.949990360783,48.4535408929314,visual
15.2066462432001,-121.161603625787,visual
79.5554499980511,-100.841528884298,visual
-17.4896337830681,-179.177120237832,visual
13.0024691912604,45.5089912964263,visual
-124.222142162556,-106.724145953266,visual
-127.961861060483,149.712586962579,visual
52.4433043349062,118.488070424211,visual
117.337469276675,102.813495973424,visual
104.438940514822,-31.2151297113888,visual
30.592821194218,-132.628454215202,visual
-140.537424469138,-88.6840975298341,visual
16.0304353651003,16.185266828182,visual
-173.624207353621,157.707452763468,visual
135.634095943848,-73.173259089612,visual
-87.6200379694797,-1.67560054796207,visual
82.9624942103584,-162.016090972992,visual
41.2367255659589,131.22298670049,visual
-1.36935353782485,-28.8962735496938,visual
115.389608495509,128.071939654236,visual
127.657018828461,-105.396264125126,visual
-147.302824620132,-104.566778914377,visual
155.844300558217,166.957032833083,visual
51.8355797728584,14.6797579582335,visual
-101.077615252774,73.7297299901276,visual
34.1685504723217,166.660617377492,visual
-162.454775283985,-76.6547217190533,visual
138.218249886886,132.532801224079,visual
159.216823745364,107.580709078307,visual
33.3009069988656,83.0625661919409,visual
64.4395335574258,55.5530175433066,visual
66.1336354739137,58.7893233449814,visual
169.204973688223,42.9120046113306,visual
146.474081196755,-38.0427913553878,visual
168.243072288729,-106.187010427856,visual
-106.589699675605,-103.307556600205,visual
116.791837341188,138.457673611612,visual
