left_degrees,right_degrees,condition
-67.0056837933963,-30.4774787552192,auditory
-147.81159279973,-147.544406206094,auditory
47.9512013989325,49.833207858896,auditory
128.483715160398,129.480240294517,auditory
-135.030829159107,-117.285273816695,auditory
48.7141828117314,49.0347859893792,auditory
24.916122172751,25.1538981214859,auditory
135.618202245962,89.9470090285764,auditory
-107.847686927182,-119.651968772622,auditory
67.9242070111923,61.8871775036338,auditory
20.9651426186397,-34.9531327794848,auditory
-62.3951851800029,-47.2308083974229,auditory
-119.601948026522,-119.802782608947,auditory
-33.0088774132031,-23.3478853502363,auditory
90.2080484925008,78.6853467050216,auditory
-82.7157779362256,-79.9733190450945,auditory
66.3098655070079,58.8760730976645,auditory
109.454365402471,109.029079559491,auditory
38.0285539989914,42.3979016899598,auditory
22.6193487596063,20.6675307634595,auditory
68.5260391422535,60.2045900173622,auditory
164.828120536631,-169.356624763086,auditory
109.660195639724,116.406720845027,auditory
-134.098879337495,-133.165241318977,auditory
91.9990511669021,97.2270359724076,auditory
27.3872181969978,17.874482703471,auditory
88.0311220534227,91.9056124971863,auditory
-46.7445600624143,-45.3274844869842,auditory
-154.415117199514,-155.270169429367,auditory
-145.663907795665,-154.938568734544,auditory
36.0827408693373,14.2402780500864,auditory
176.541802265282,174.259927132302,auditory
124.165987521057,116.78322978673,auditory
-179.146318597426,44.2084932481417,auditory
-134.061059712048,-135.61715509938,auditory
-119.281087446597,-115.867435113297,auditory
28.1702133725186,33.0641529332142,auditory
151.481304036121,149.298978430301,auditory
34.9339455243256,35.0260245367667,auditory
87.282942937703,82.0066207596976,auditory
-110.799158006036,-109.38286876751,auditory
-44.7637654109941,-49.4101685237125,auditory
-86.2132280735483,-82.5154112925088,auditory
28.3693943808405,35.7613735098012,auditory
144.090820761596,163.031834937136,auditory
91.3833735144085,85.0030842328784,auditory
92.0464759421928,89.5015650126951,auditory
-171.495294819118,112.188932849138,auditory
-5.67972601081264,-19.6805610210531,auditory
-104.709204119512,-89.6763382682582,auditory
-85.7047730071784,-68.8774646252124,auditory
58.2684832482877,61.7764328962677,auditory
20.2151813019067,5.18135025408553,auditory
12.5123767640887,30.0649404345481,auditory
-99.9083413118932,-39.9423908234017,auditory
31.652122579177,80.9939843363115,auditory
71.114668043372,62.1072513938434,auditory
24.0914036913562,26.474105436041,auditory
-118.394928641836,-124.922411220553,auditory
165.982020324532,152.930517080371,auditory
14.8684857703247,-4.98728959645559,auditory
-137.857613773534,-157.548821871557,auditory
-167.760336776872,-158.965741493153,auditory
132.151908166372,137.912735968366,auditory
4.69410958746403,17.1324002609257,auditory
123.149934521975,134.704332347766,auditory
-79.9674302812645,-65.4070343118716,auditory
34.6033371754045,38.2510366414641,auditory
-134.600390117601,-138.268667365951,auditory
152.93601333236,143.047807509964,auditory
-47.832656447247,-51.3977365230017,auditory
156.866107254457,149.199941278355,auditory
-21.3044401825156,-28.5151077393042,auditory
67.6252402489315,44.046680763798,auditory
93.4410206327004,104.492435944361,auditory
151.545272234198,153.02531251684,auditory
90.0295918329564,91.6827912846821,auditory
168.197504657135,-147.171575946122,auditory
129.784363590738,30.1713980907387,auditory
-25.651353272849,-20.1367309257021,auditory
43.4987744647419,55.4742929195067,auditory
-88.4823943320572,-76.5596664083836,auditory
88.6655115718898,89.7290341707078,auditory
-138.491411164906,-133.275107482454,auditory
-63.9948861976848,-66.6375513128311,auditory
-76.5053860680203,-71.5796564884151,auditory
33.3843974243377,38.1519186570928,auditory
70.2017795394878,73.612425662283,auditory
157.759552961161,137.65545799238,auditory
104.329536197178,110.653803817378,auditory
-160.329942814272,-162.83092028928,auditory
37.5212059770427,60.0232670831486,auditory
85.5915070602693,102.2239737951,auditory
164.777173647895,155.060649308113,auditory
159.485996619337,172.028417043484,auditory
144.239310793643,140.470755790854,auditory
162.342512702262,147.5334594026,auditory
-135.43364728333,-147.158162634267,auditory
35.2487504869257,60.4377393176546,auditory
-35.6216217165452,-32.0568493528464,auditory
169.633671498888,175.613345062403,auditory
-94.3663113273644,-100.943410621719,auditory
117.131261608129,102.056133171446,auditory
126.094345025544,127.201427356825,auditory
176.934704844449,169.011011036269,auditory
72.5993905192674,76.9326871788119,auditory
122.175815068895,115.600582554639,auditory
-19.7360621949323,12.1373129397402,auditory
-48.2339185874617,-44.3495956506453,auditory
-114.280059428728,-115.959275928161,auditory
40.7939150750673,53.7163553458633,auditory
22.2839848706034,20.9580316449574,auditory
-104.010126978273,-102.83027146324,auditory
-14.8992947844072,0.102626151610893,auditory
-3.19665282167414,159.555754348823,auditory
-127.322524463358,-38.5656069558636,auditory
31.7218744624941,21.61107748947,auditory
107.79620904164,93.6560487220764,auditory
-44.8347080462177,-40.5757979382251,auditory
10.8590591055668,5.37186025708248,auditory
46.9842056804329,65.7356445118849,auditory
149.280794605571,150.656705766626,auditory
166.40997881189,174.95393095437,auditory
101.388929476157,89.2598496918373,auditory
166.07139594579,-146.61150883254,auditory
-130.17766509044,-141.900565749037,auditory
166.539547718067,175.837590553971,auditory
-172.405116410221,138.95242831247,auditory
69.0130334615286,73.6965651781011,auditory
96.2655617796077,141.425670788696,auditory
146.701007370372,95.5611281396489,auditory
113.695649465654,108.768969679777,auditory
172.020893927389,171.864663959789,auditory
80.9016699721789,81.8106841230515,auditory
-135.395762989641,-134.450127168253,auditory
89.5944567476178,101.317302255277,auditory
-175.390925314822,161.677693346719,auditory
69.8741527590432,68.6956352399308,auditory
45.8300006323807,54.2382815911751,auditory
116.656392458504,119.319544643276,auditory
-128.505706442823,-120.542566538713,auditory
153.396881645934,157.660110277561,auditory
-25.3657073090684,-20.8566892158925,auditory
-115.812774180094,-116.092705354761,auditory
148.687703255445,152.412833751486,auditory
49.0232885887034,54.2190430837033,auditory
154.648057121162,154.334226416225,auditory
74.2259711442452,74.4171486437391,auditory
-124.815827773965,-122.113802290111,auditory
144.968038846222,111.386676439859,auditory
-82.0854401867418,-74.7686123472156,auditory
-85.7288829658657,-83.266704994936,visual
-29.1313319821458,-28.8808205014541,visual
45.8871915868507,49.6420849276247,visual
139.087629732287,146.560799997856,visual
153.300571867687,152.950454465396,visual
56.8199873162941,59.2127766651072,visual
8.63614389831409,15.845271983117,visual
-176.475764177819,177.602205983931,visual
118.0848695914,153.245998401959,visual
-95.7123777026045,-98.8364889140376,visual
-137.305714199257,-103.176974409785,visual
-11.4680854644051,-18.4808366135461,visual
-168.829293736565,-172.606646311058,visual
130.261191124346,152.141858635233,visual
154.433270236118,157.668584174837,visual
-44.2691523318095,-51.6840776385877,visual
12.3766157213667,16.5808495197138,visual
-145.5906638447,-141.398089589716,visual
72.3354667339572,78.5430321948144,visual
81.3796930902158,87.309576867528,visual
130.044794936393,139.139567307452,visual
-49.8895571565298,-32.6347931671282,visual
105.045567249037,104.112769675605,visual
37.5252291863681,41.56617700404,visual
123.234305554479,122.737741036091,visual
-150.734957424537,-150.478275673136,visual
35.4899122200072,34.5519972636766,visual
-53.5224383777549,-51.0100566683785,visual
-21.808487376685,-19.803770976738,visual
79.1625494090391,77.6447346402637,visual
-76.8486686941277,-79.6213282666395,visual
-160.368878643355,-156.669356336913,visual
163.74775363124,52.1114044429365,visual
167.833486221686,165.467214344285,visual
156.389434306571,165.208462128878,visual
-76.1290197283468,-73.6371249626538,visual
-85.0262453552082,-87.9819008476146,visual
-15.7726789135915,-9.0800121423334,visual
-115.071482492712,-112.528930004188,visual
-72.5174650100599,-78.0569677931152,visual
-84.447091753669,-91.5986343249477,visual
-51.6730290368129,-48.534467531691,visual
63.4077061881238,94.4196401872326,visual
156.669110236202,176.249878626715,visual
-103.000298936901,-121.196698080904,visual
-49.8424894724547,-49.922688626929,visual
149.475367039026,149.983753891903,visual
113.372755251949,108.965270987611,visual
127.867699656733,74.7373147520452,visual
-153.031052150596,-158.30685496618,visual
-6.2254682487127,-14.5434175104853,visual
-72.5764057517108,-69.8654472602744,visual
-46.8644997811063,-43.349590383688,visual
165.957092602414,169.677119907027,visual
-6.44675314277336,-9.58530775128159,visual
108.363942594926,-174.722804240328,visual
-71.8954903770725,-73.545258884456,visual
135.40910198065,135.500863764442,visual
-57.2856272848298,-63.2656493724208,visual
103.069910375451,102.742476532024,visual
19.8811145071501,23.9893791192759,visual
-140.555735501569,-152.77551641254,visual
-134.849371358508,-118.591141782542,visual
141.908995709934,157.815289886045,visual
106.748070861672,109.584201427078,visual
-16.804358796861,-43.3073760299781,visual
-105.143708606705,-112.273627794543,visual
76.8798468244611,32.3687077863921,visual
172.378359819701,176.333563631785,visual
166.270327248608,163.358766408849,visual
94.1130405580541,96.5658724398363,visual
65.2431600441756,64.5987647379531,visual
-9.99670850743187,-11.9093204350655,visual
-75.4418951694036,-84.5731149548057,visual
154.399633129946,150.409917226968,visual
56.7014103733242,-38.9302222725406,visual
114.928710997375,104.18767482626,visual
163.357790605325,161.593316448981,visual
6.56537108251466,9.57299006225804,visual
-75.6612659350375,-76.6335528813031,visual
-24.3684804231257,-14.6236647491986,visual
152.784777980267,-158.824418091458,visual
8.86999790063487,-21.2818741008505,visual
-78.5898397750463,-93.7051951413027,visual
-91.0686469763421,-86.0481345975618,visual
8.84459356188812,17.6000585328223,visual
-159.196206457385,-138.832708362294,visual
-42.76571361572,-34.7416808080597,visual
-54.8556315665774,-50.1167898925616,visual
-114.843506058966,-90.0232410293352,visual
-169.198674163972,-94.4746751524249,visual
93.666542312027,99.9037770938161,visual
95.4341116901644,109.903426828254,visual
-73.2260317467422,-85.2593417069848,visual
-168.649369846333,-160.723663803324,visual
-28.36618058008,21.1110676301204,visual
-158.709844329609,-158.535847613878,visual
118.221322171714,124.650906742023,visual
74.8445002552893,77.8284308301192,visual
72.9829896049588,74.7331823064078,visual
25.6979862182703,27.7617000647434,visual
84.6027096364002,148.262548987908,visual
-54.0136500967625,-69.2870914997884,visual
159.110771922224,156.018039278297,visual
-108.16119715415,-106.42435451456,visual
23.5159835568104,24.9976831733408,visual
173.861415596059,179.633864750527,visual
36.9155040823329,31.6577281384699,visual
176.705358010522,-174.711639563624,visual
-135.342464726707,-136.582895704242,visual
170.027398160596,168.599099533662,visual
-94.9247107652394,-83.492893072551,visual
-166.421288758782,-157.906201656434,visual
-0.486022081736236,-24.565789481091,visual
-90.1550279061109,-100.842039086364,visual
35.6955630456177,-115.514805740314,visual
-130.796708623948,-76.8396749846167,visual
-72.3902398682594,-109.495403695644,visual
105.381057253325,110.592248009613,visual
-29.2836704975096,-10.5269082536615,visual
167.77046663104,176.380096254595,visual
161.909055616829,169.524712657183,visual
-31.5762339695701,-57.2329279921977,visual
-17.4131426836367,-22.3666655307959,visual
64.7150408400285,54.2918819807018,visual
89.1591272497569,68.7537911468302,visual
31.9369905232771,116.95767351248,visual
176.011805144357,170.95868739469,visual
-121.979089013601,-132.821014043141,visual
62.2990628422704,56.452765433243,visual
-178.21580287151,178.814517348715,visual
-74.2046922899593,-79.9766898986793,visual
-42.2490848412789,-51.0804036618,visual
3.27652232319403,3.62545437024462,visual
93.3194690477849,63.1352577520486,visual
19.7572959178447,2.18444308820025,visual
57.0555300863114,102.753125981163,visual
-93.1447914055911,-100.907594628341,visual
36.1661687455656,28.3998156742055,visual
103.206721281335,125.019601046003,visual
-11.1879895881813,-14.2190138288296,visual
-38.3978725808937,-31.5201766683389,visual
123.545570304473,107.520885789692,visual
79.1879613751145,71.6559418470205,visual
-37.0292180154222,-41.5541046780977,visual
-30.5482846585398,-12.8644955957857,visual
17.5721012871157,11.5889252135338,visual
144.740153902195,-148.975548071054,visual
-83.0159188348984,-76.4276865660132,visual
3.87589840526552,1.55393371569044,visual
-16.473510213873,24.8834260588699,visual
105.61541610098,103.802204633745,visual
14.12558031751,21.5671101968552,visual
-37.4567968059508,-28.9916406752118,visual
160.981795527464,162.722195956795,visual
73.4807013294276,57.4454525411982,visual
19.6875343539806,20.9258641942803,visual
